用户编号,用户名,用户等级,用户个性签名,用户粉丝数量,用户是否是大会员,用户是否存在
1,bishi,4,,157053,1,用户存在
2,碧诗,6,kami.im 直男过气网红 # av362830 “We Are Star Dust”,966530,1,用户存在
3,囧囧倉,5,富强、民主、文明、和谐、自由、平等、公正、法治、爱国、敬业、诚信、友善。,9742,0,用户存在
4,枢木朱雀,5,,4062,1,用户存在
5,幻想乡,6,,6084,1,用户存在
6,腹黑君,5,,4968,1,用户存在
7,Tzwcard,5,にじさんじが大好き 謝謝茄子 头像：江良ちゃん by またのんき▼先生,5081,0,用户存在
8,Lizeqiangds,5,有空来微博找我哦 @Lizeqinagd,2240,1,用户存在
9,柴刀娘木木,6,ヽ(•̀ω•́ )ゝ我坚信双马尾即是正义！家里供着三坨爱宠：biubiu和皮卡丘和uid12魔熊 ！【随便水的水群号：111343151】,45421,1,用户存在
10,橙卡-bydmm,6,Golang CRUD杂耍大师,11880,1,用户存在
11,春哥,2,,2422,0,用户存在
12,MagicBear,6,这里是魔熊，喊我MB也可以。这个号的主人的主人是uid9 木木娘，欢迎一起关注！^ ^我们会不定时直播，直播间不是3322号就是99号。,102852,1,用户存在
13,五月天,6,2024.7,5390,1,用户存在
14,初音ミク,4,2020-09-15 已考古人数 363 ～(￣▽￣～)~,5269,0,用户存在
15,三分之一劫,3,乏善可陈的自我绝望,2421,1,用户存在
16,荼荼丸,6,彳不亍,86468,0,用户存在
17,WEIghtness,6,包括但不仅限于“活了”，“考古”，“不要考古”等无意义评论会被删除并拉黑。,2923,0,用户存在
18,暁の赤月,5,YUI ~にゃん~,9119,1,用户存在
19,大大大罐头,6,来考古的留步一下了解下铃木实里啊，谢谢！,7023,1,用户存在
20,恶魔晓月曲,6,你可以在很多地方看到我。,6323,1,用户存在
,,,,,,用户已注销
,,,,,,用户已注销
,,,,,,用户已注销
24,不思議,6,No Music,No Life.,5519,1,用户存在
25,忙碌的呆瓜,4,2021.8.9,1316,0,用户存在
26,En1ightened,5,漫天的我滴到地上,树种的我发芽了，而你在想着我。,396,0,用户存在
27,feng,2,,608,0,用户存在
28,IamLogos,3,,227,1,用户存在
29,管理員,3,***************,244,0,用户存在
30,堆堆堆堆堆堆堆堆堆堆,5,不卖号别问了 球球你们,322,1,用户存在
31,習子,4,,184,0,用户存在
32,一条黑黑,6,小朋友们，别考古了。,754,1,用户存在
33,番茄,4,,372,1,用户存在
34,右肩の蝶,4,别问，活着,218,1,用户存在
35,愛在二次元,6,絢辻さんの下僕です。,684,0,用户存在
36,芙兰朵露斯卡雷特,2,愛在二次元,366,0,用户存在
37,折射,6,Up主≠作者，除非标明原创的投稿，其余搬运类视频询问事项不予以回复，请各位知悉。,16329,1,用户存在
38,玛奇玛,6,,8359,1,用户存在
39,胡桃,4,别问.活着.不卖.偶尔上.
顺带，不玩原神。视频没删留个纪念,1831,1,用户存在
40,美丽生活观察员,3,,413,0,用户存在
41,不祥之赵,5,,332,0,用户存在
42,超氪金月饼,4,还没开饭？,165,0,用户存在
43,绞水,5,三分之一劫,715,1,用户存在
44,MissuQWQ,5,晚风中闪过 几帧从前啊。 ,238,1,用户存在
45,宠物店女孩,3,这个人没有简介一定很不简单,178,1,用户存在
46,藤原妹红,5,额,741,1,用户存在
47,homil,6,栖息着双份灵魂,153,1,用户存在
48,钦崽,2,,145,0,用户存在
49,家具屋,2,,127,0,用户存在
50,風見幽香,3,qwq







再看就把你做成花肥,187,0,用户存在
51,PAD长的小刀,5,求米,294,0,用户存在
52,RinNe,5,,124,1,用户存在
53,铃仙_,1,,120,0,用户存在
54,菜刀武士,4,,119,0,用户存在
55,普拉切特,5,,111,1,用户存在
56,雷小囧,5,,102,1,用户存在
57,幕后Muhou_net,3,欢迎和我一起在B站学习~,1309,0,用户存在
58,满座衣冠皆老朽,4,满座衣冠皆老朽,104,0,用户存在
59,sihua-w,3,--,156,0,用户存在
60,钉宫理惠,5,ぺったん、ぺったん　ツルペったん,831,1,用户存在
61,时雨kana,5,万华镜的世界...,121,1,用户存在
62,normguy,4,一介俗人,172,1,用户存在
63,法国元帅贝尔纳多特,5,本号qq2827239426,118,0,用户存在
64,***,5,,531,0,用户存在
65,琪露诺,6,,1957,1,用户存在
66,IZONE我的世界我的光,4,IZ*ONE和WIZ*ONE，在平行宇宙里，Forever！考古的小伙伴也喜欢IZONE的话，可以通过UID954找到我。,340,0,用户存在
67,亜理须,3,密码总是想不起来…,107,0,用户存在
68,安心作梦,6,https://share.weiyun.com/olKAYO9E　解压码jealousymakesmegotohell,11753,0,用户存在
69,是我阿崔,4,有事请找关注列表大号：祢豆子        qwq





















好耶qwq,258,0,用户存在
70,伊拉龙,5,,188,1,用户存在
71,時間の旅人,6,上岸上岸,273,1,用户存在
72,岑,1,,89,0,用户存在
73,wei1kuan2b,2,没得手机绑，不让回私信，还活着，么么哒,88,0,用户存在
74,魂魄妖奕,5,,110,1,用户存在
75,丸子,6,团队型日更UP主播 稿件查看更多往下看 ， 商务合作的话请私信,977710,1,用户存在
76,高桥凉介,5,,147,1,用户存在
77,PAD,5,,166,0,用户存在
78,雾雨魔理沙,2,,352,0,用户存在
79,saber酱,6,个人微博：http://weibo.com/saberchanchan/,176149,0,用户存在
80,囧.史密斯,5,bilibili 不知名来得早UP主,302,1,用户存在
81,Cyberdreams,5,,182,0,用户存在
82,梦游一生,3,号找回来了，还是恢复这个号这么多年来平平静静的状态吧，删掉这些纷争只是想回归从前，不是怕某些人，就这样吧，谢谢大家。,289,0,用户存在
83,妹樣,2,,356,0,用户存在
84,jianjss,5,,113,0,用户存在
85,kikb,5,,280,1,用户存在
86,油条のetsp,6,1234,61,1,用户存在
87,一个普通中年人,6,听老人的话/和年轻人在一起,22621,1,用户存在
88,监督,2,,139,0,用户存在
89,水银灯の忧郁,4,别问.活着.小号.不卖.偶尔上.,153,0,用户存在
90,此號出售,3,性感账号，在线出售，如有需要，出门右转联系UID91,318,0,用户存在
91,万能貳濕仁波不切,5,“Frankly, my dear, I dont give a damn.” ,10799,1,用户存在
92,kaze,1,,81,0,用户存在
93,病院坂琉璃,6,,96,1,用户存在
94,NEKO-MIMI,6,别问了，不卖号！,516,1,用户存在
95,小狗,5,此账号已被封禁,1165,1,用户存在
96,辛德瑞拉,6,不卖谢谢,126,1,用户存在
97,投影消逝中,6,weibo.com/naimensoliton 转眼三年三年又三年,15271,1,用户存在
98,黑暗新星,5,( ),172,0,用户存在
99,园长豆豆,5,,1444,1,用户存在
100,安迪日宫,4,别盗我号好吗！QAQ我是活人！,711,0,用户存在
101,不舍一切有情,6,这么在意我不好吧？,133,1,用户存在
102,工藤新一,6,真相永远只有一个,195,1,用户存在
103,捌玖君,3,没卖号,634,0,用户存在
104,悲剧虎,5,谁还记得当年发cos资源的dachong吗,102,0,用户存在
105,树叶渡江,3,一只快乐的老咸鱼,60,1,用户存在
106,四宫辉夜,5,真是可爱呢～,368,1,用户存在
107,鹅厂,4,伟大始于渺小,49,0,用户存在
108,7achibana,6,少女折寿中…(´-ωก`)

活着！不卖！谢谢～

こんな自分に未来はあるの、？
こんな世界に私はいるの、？,234,1,用户存在
109,hank,6,因为有梦，所以更强。,120317,1,用户存在
110,正版公安民警,4,Don't you give up on me. ,217,1,用户存在
111,霸道总裁的绝世小受,5,斯人若彩红遇上方知有;,155,1,用户存在
112,曾伽,6,,704,1,用户存在
113,Mai-k,5,,65,0,用户存在
114,水水,6,,147,1,用户存在
115,Tr.,6,,111,1,用户存在
116,ひろすえ涼子,5,,1079,1,用户存在
117,孤独求败,2,,39,0,用户存在
118,asura,5,,1,0,用户存在
119,狂气的芙兰,6,一日小明行至星光学院见一金发大眼挡在路中，小明定睛观瞧，此人右手饭勺木纹匀细有海苔味，身披星光学院校服头顶红色蝴蝶结，内衬天使软糖内衣脚蹬白色练功靴，腰间消防斧发出淡淡光芒，小明见罢心中暗想:此人莫非,3650,1,用户存在
120,AJYQZM,4,,5,1,用户存在
121,風紀子,2,,1,0,用户存在
122,鸽鸽汁,5,,166,1,用户存在
123,莫眠俱乐部,3,,214,1,用户存在
124,ImLogos,4,,32,1,用户存在
125,黑暗有光,2,,100,0,用户存在
126,PandeaWork,6,http://weibo.com/1930371687/ 渣浪微博求围观求粉,9338,1,用户存在
127,shmily,5,,155,0,用户存在
128,飛走dē緈輻,5,,95,0,用户存在
129,pac,6,,80,1,用户存在
130,bambool,5,,169,1,用户存在
131,音無薫,5,一个希望过平静生活的普通家庭主妇,1023,1,用户存在
,,,,,,用户已注销
133,越宅越健康,4,,31,0,用户存在
134,1怪物1,5,你以为我是谁？,92,1,用户存在
135,伊吹西瓜_,5,meaqua！,46,1,用户存在
136,外媒,6,,4761,1,用户存在
137,泥棒,5,,39,0,用户存在
138,Cityhunter,4,,1063,0,用户存在
139,山德士的诅咒,6,,64,1,用户存在
140,peshing,5,,35,1,用户存在
141,柒柒,1,,29,0,用户存在
142,河蟹股份有限公司,1,,26,0,用户存在
143,南斗马春花,6,你听过侠客立的故事吗？,37,1,用户存在
144,⑨,5,幻想乡没有巴士,113,0,用户存在
145,坏人蛋,4,,30,0,用户存在
146,吃手指的葱h,5,,207,1,用户存在
147,克洛塞斯,6,…… ,61,1,用户存在
148,uid_148,2,,29,0,用户存在
149,菲娜哈特曼,5,良好人生_,1487,1,用户存在
150,so,2,,100,0,用户存在
151,小熊,5,不是知名UP 不要@我 社畜画手一名。 半次元：Terrybear,122,0,用户存在
152,日山晴萃,6,让 一 切 都 回 归 到 无     ...,42,1,用户存在
153,某一,6,OH，看在上帝的份上，别再追问我头像的事了，我的伙计。,666,1,用户存在
154,悠悠,1,,27,0,用户存在
155,紫血崎,5,直播弹琴的，比较胖的那种,3731,1,用户存在
156,Zombie,1,,28,0,用户存在
157,路过的人称路人,6,,73,1,用户存在
158,伊吹⑨萃香,5,,179,1,用户存在
159,黄泉之水,6,珏了,114146,1,用户存在
160,博丽灵梦,6,哔哩哔哩乾杯！,1790,1,用户存在
161,此处青空,2,,41,0,用户存在
162,寂寞寂静岭,1,,27,0,用户存在
163,gaomutian,6,,242,1,用户存在
164,绫波丽,2,,45,0,用户存在
165,长门有希,5,,87,0,用户存在
166,古赫,6,原来个人签名是在中心主页写啊~难怪之前找不到！o(￣ヘ￣o＃) ,1762,1,用户存在
167,雾雨魔理沙_,1,,28,0,用户存在
168,海马,5,,30,0,用户存在
169,碇真嗣,2,,45,0,用户存在
170,71827,6,,28,0,用户存在
171,灵乌路空,2,,47,0,用户存在
172,神尾观铃,2,,28,0,用户存在
173,莉露兜,5,跟SCP173 没关系哈！~,163,1,用户存在
174,女友成堆,3,好耶qwq,34,1,用户存在
175,谁家的胖贝贝,5,虾哩虾哩٩(˃̶͈̀௰˂̶͈́)و艹,131,1,用户存在
176,无核,6,,111,1,用户存在
177,SkyFlian,5,,3,1,用户存在
178,逆天之龙,5,,28,1,用户存在
179,琪露诺_,5,,50,0,用户存在
180,Eougen,5,,55,1,用户存在
181,崩坏の世,5,,15,0,用户存在
182,蒲妮惠,5,,70,0,用户存在
183,SLPFRT,4,,33,0,用户存在
184,风颜枫雨,6,,34,1,用户存在
185,蓝莓,4,-。-,3107,1,用户存在
186,馬鹿9,4,AC在爱一直在,244,0,用户存在
187,猎手,6,,31,1,用户存在
188,微博无敌,6,你撩头发就撩头发，你撩我的心干什么……,1340,1,用户存在
189,彭薅仁,6,我们不用很麻烦很累就可以投币！,28,1,用户存在
190,狐狸,3,,48,0,用户存在
191,驱逐雪风,6,左雪风右雷酱，冷门游戏爱好者,324,1,用户存在
192,战场原黑仪,3,只是一个用手机听小松未可子radio才登录的小号而已,52,0,用户存在
193,fooou,2,,11897,0,用户存在
194,亞白ミナ,4,Hay un mundo mejor, pero carísimo.,47,0,用户存在
195,衤叉衤叉,4,,0,1,用户存在
196,间岛淳司,6,,144,1,用户存在
197,上甘玲Official,6,现接歌词翻译/漫画汉化/插画绘制，详情私聊/头像是花园鳗/音质问题欢迎私信/夜でもこんにちは！杂食系游戏&绘画主播，上甘玲です！,4198,0,用户存在
198,看到这个网站我心神不宁,1,,27,0,用户存在
199,香霖test,2,,33,0,用户存在
200,回音山,4,,42,0,用户存在
201,圈圈圈圈九MKII,5,咸鱼型圈九MKII,198,0,用户存在
202,ACFUN,2,天下漫友是一家 （个人小号,94,0,用户存在
,,,,,,用户已注销
204,伊吹萃香,6,,76,0,用户存在
205,二階堂サキ,5,,0,1,用户存在
206,南海八爪鱼,5,,29,1,用户存在
207,某喵,6,你要问我玩游戏是为了赢还是为了开心，那我当然说为了开心。那么问题来了，不赢哪来的开心。,42,1,用户存在
208,哔-,2,,25,0,用户存在
209,DepXe,4,操纵进度条傲娇程度的能力,2366,1,用户存在
210,四处闲逛的黑猫,1,,28,0,用户存在
211,寒蝉,6,祝福天下的学子们都能够考上自己心仪的211大学！,2118,1,用户存在
212,Akatsuki_Satoru,5,bilibili动画（笑）,31,0,用户存在
213,泪目了,1,,28,0,用户存在
214,AcFun_,2,HK97已经被删掉惹,98,0,用户存在
215,孤独灿烂的神z,3,,27,0,用户存在
216,中年婦女之友,5,AC在,爱一直在,30,0,用户存在
217,TKHS,5,Every year counts.,25,0,用户存在
218,遠山遙,5,,48,1,用户存在
219,我是弱气受,1,,23,0,用户存在
220,比灰更灰,5,这个人是个悲剧,49,0,用户存在
221,哔-哔-哔-哔-哔-,3,,36,0,用户存在
222,虞鸮,5,,30,1,用户存在
223,小乔流水人家,5,叹思之不畅，萌人所未及。,33,1,用户存在
224,相会在宇宙,5,Chill。。。,26,0,用户存在
225,四次君,2,,29,1,用户存在
226,死鸟,4,世事如棋，乾坤莫测，起肖英雄,307,0,用户存在
227,LV包,1,,28,0,用户存在
228,轻音部,1,,26,0,用户存在
229,Sad_Panda,5,,76,0,用户存在
230,葉月しずく,6,一个废宅与猫，无产阶级，PC游戏狂热玩家【猫群：201757020】【分享个人与猫的日常，随缘更新游戏视频】,8439,1,用户存在
231,小隐,3,据说贫乳贴着墙走不会引到怪.,27,0,用户存在
232,一九桑,5,,36,0,用户存在
233,恺朔,5,为何不做一个有趣的人呢？,709,1,用户存在
234,Bili_234,1,,62,0,用户存在
235,魔理沙,1,,39,0,用户存在
236,蓬莱山辉夜,6,永远と须臾の罪人,182,0,用户存在
237,痛くてたまらない,2,,24,1,用户存在
238,ljl2952655,5,,25,0,用户存在
239,古手梨花,5,实况主→キヨ×レトルト 日本top4
既然你发现了这里，那就看看置顶和收藏夹吧！,82,0,用户存在
240,流浪De囧囧,3,我流浪，我囧,26,0,用户存在
241,暗林,6,,50,1,用户存在
242,茶,6,AKA硬币收割机。正经的欧皇和不正经的福利UP主。,1409,1,用户存在
243,GOKURAKU,6,( ｡ớ ₃ờ)ھ,960,0,用户存在
244,翠星石,6,,77,1,用户存在
245,稀土部队兵,2,,79,0,用户存在
246,gchxp,5,,50,0,用户存在
247,Daddy兔,4,UID:247,42,1,用户存在
248,雪代すずの,6,好无聊,62,1,用户存在
249,真无翼天使,6,见证一切，从一切的开始到结束的那一刻。,57,1,用户存在
250,farisnyannyan,4,,168,0,用户存在
251,kasim,1,,28,0,用户存在
252,鞭笞者克尔苏,3, 强大的内心可以降低每分钟心脏搏动次数。,25,0,用户存在
253,MOE啾,1,,23,0,用户存在
254,焼きだんご,4,,29,1,用户存在
255,路人甲,5,,59,0,用户存在
256,推到魔理沙,4,,23,0,用户存在
257,星界p,6,ammp 忙成狗,781,1,用户存在
258,東方爺們鄉,2,,30,0,用户存在
259,家有黑喵的雨,5,人参负犬…………一只超粉上野树里的***单身人生负犬,29,1,用户存在
260,netlater,5,,24,1,用户存在
261,四十七,5,,24,1,用户存在
262,ChaosLee,4,,33,0,用户存在
263,千草樱,1,,22,0,用户存在
264,大姨妈中,3,,23,0,用户存在
265,深夢,4,❤️,24,1,用户存在
266,ac大姨妈,2,,20,0,用户存在
267,bili_267,5,,35,1,用户存在
268,Rahshcnail,6,,938,1,用户存在
269,翟南,2,,22,0,用户存在
270,衰落,4,,22,0,用户存在
271,loosey,5,,29,1,用户存在
272,睚眦,3,,20,0,用户存在
273,苍火黑白Channel,6,旧日支配者系个人势vup，課金戦士天井Man，远古白河豚。立绘画师：银silver（pixiv ID：192782）,5268,1,用户存在
274,ccred,1,,21,0,用户存在
275,Dcore,5,,22,0,用户存在
276,卡仕柏·海克梅迪亚,6,,108,1,用户存在
277,桜雨キリヱ,6,午时已到,33,1,用户存在
278,bili_278,5,,49,1,用户存在
279,华尔兹,6,,27,0,用户存在
280,黑之契约者,1,,24,0,用户存在
281,博麗靈夢,6,~♪,222,1,用户存在
282,善恶的彼端,5,,27,1,用户存在
283,青子一生推,4,,32,0,用户存在
284,奥术飞弹雕文,1,,123,0,用户存在
285,wingzero,5,,289,1,用户存在
286,中野梓,5,,90,1,用户存在
287,SXDHK,6,如果能選的話：
瑪琳是靈魂配偶，
彗星是小惡魔姨子，
ココ是玩一輩的死黨。
某些皮套人團隊好噁心。,1191,0,用户存在
288,悲鸣者,2,,39,0,用户存在
289,悠久之里,6,比拉拉人还要过气,68,0,用户存在
290,清音,2,,27,0,用户存在
291,电鳗娘,1,,29,0,用户存在
292,GaleX,1,,23,0,用户存在
293,菲林,6,实习魔法师,25,1,用户存在
294,诺诺莉莉,4,新年快乐,44,0,用户存在
295,Nc32,5,,29,0,用户存在
296,湊メメメ,2,,21,0,用户存在
297,情书可曾可书情,2,,10,0,用户存在
298,Tsubasa阿翼,4,业余写手/游戏搬砖狗/跑团人/自由摄影师,109,0,用户存在
299,鬼畜亿千万,3,,27,0,用户存在
300,园长柯基,3,不吃饱怎么有力气蹦跶呢,56,0,用户存在
301,流冥,5,,50,0,用户存在
302,早期测试账号,5,,25,1,用户存在
303,三吉鬼,4,,20,0,用户存在
304,滅,5,我既优雅又充满良心！,42,1,用户存在
305,寂寞娘,3,,18,0,用户存在
306,11,5,,119,1,用户存在
307,苍紫,5,,19,0,用户存在
308,不安之风,2,,22,0,用户存在
309,jiee,2,,158,0,用户存在
310,爱生活爱百合,6,我喜欢默认头像..,90,1,用户存在
311,忘却の旋律,6,,346,1,用户存在
312,IamR,5,男爵闻汝来，摆好昆特牌,57,0,用户存在
313,bili_313,3,,20,0,用户存在
314,食运工口魔,1,,39,0,用户存在
315,6wingangel,4,,24,1,用户存在
316,終音ヨル,1,,22,0,用户存在
317,嘉晚果丹皮拉,6,いつもニコニコあなたの隣に這い寄る混沌、ニャルラトホテプです,42,1,用户存在
318,喵喵咪,5,,46,0,用户存在
319,V爺,5,你来啦 
一起玩游戏鸭ξ( ✿＞◡❛)
小红书同名·工坊Verxxxca,10773,1,用户存在
320,黑耀石,5,,0,0,用户存在
321,你永远不会变,4,一切都凝结,34,0,用户存在
322,bili_322,5,,23,1,用户存在
323,statics,5,,24,1,用户存在
324,废墟,1,,23,0,用户存在
325,北上双葉,5,,82,0,用户存在
326,伪娘的爱人,5,,143,1,用户存在
327,新华里艳舞员,6,,25,0,用户存在
328,id328,5,I just want to be happy,69,0,用户存在
329,五代,6,,98,1,用户存在
330,櫻乃風,6,魔法使いです~！！,57,1,用户存在
331,水如影,5,你走在黑夜里，也走在星辰里，月亮知道你的目的地。,136,1,用户存在
332,F,5,,37,0,用户存在
333,香風玉青,5,,58,1,用户存在
334,影子猫,5,,26,0,用户存在
335,彼岸,5,我的uid没啥好看的啦,77,0,用户存在
336,杨帆,6,小业靠智，大业靠德,132,1,用户存在
337,Aqua,2,,24,0,用户存在
338,你妹,5,空空如也,97,1,用户存在
339,blun--,4,别搞我的号了拜托，ID都被搞没了。,23,0,用户存在
340,淚時雨,5,http://music.163.com/#/user/home?id=66173461
,51,0,用户存在
341,八云紫,5,,255,0,用户存在
342,紧到睡不醒,6,拍照的. weibo. ___smoKer,74,1,用户存在
343,格蕾希尔,5,,30,0,用户存在
344,KDConan,5,,28,1,用户存在
345,いたずらしじゃうう,6,励志把所有D过的2dvtuber捏成3d的，狗头~~~~,52,1,用户存在
346,夜夜月圆圆,5,,29,1,用户存在
347,活尸化酸奶,4,,35,0,用户存在
348,挖坟挖坟挖,6,FGO,FF14玩家，B服 100,121,240,414,1492,1,用户存在
349,传说中的懒人,6,懒就一个字，我只说一次,41,1,用户存在
350,Kresnik_Mk-XII,5,500人委员会,908,0,用户存在
351,bernkastel,5,,34,1,用户存在
352,DNA,6,乱刻收费~,277,1,用户存在
353,hare,3,,24,0,用户存在
354,ZUN,3,,38,0,用户存在
355,wangchao,5,,27,1,用户存在
356,西行寺-幽幽子,5,,42,1,用户存在
357,赤色孤狼Miruacle-,6,,229,1,用户存在
358,欺诈师の微笑,1,,22,0,用户存在
359,睡懶覺的小貓,4,联系QQ  shroomish@xloli.net ,27,0,用户存在
360,34789,5,,38,1,用户存在
361,GP—01,5,,37,1,用户存在
362,蒜蓉大蚝,6,,186,0,用户存在
363,室长,6,=_=主要直播战地系列游戏，广州人，说普通话不标准，见谅.,816,1,用户存在
364,菲社长,5,C.A.V.U,2387,0,用户存在
365,邪恶的半自动洗衣粉,5,深渊里的洗衣粉,100,1,用户存在
366,我爱罗,5,,116,1,用户存在
367,blankaesop,3,,227,0,用户存在
368,天朝绿坝娘,3,,30,0,用户存在
369,福耳,5,账号不卖,400,1,用户存在
370,Uee,5,,20,0,用户存在
371,堀葉,4,十年东方人，千年东方魂,214,1,用户存在
372,IBN5100,5,京阿尼挺住！,577,0,用户存在
373,hatsune,1,,23,0,用户存在
374,三菜一汤,3,来了老弟！,76,0,用户存在
375,普拉斯卡特,5,好吃的好玩儿的！！,25,1,用户存在
376,TDG四次君,1,,20,0,用户存在
377,AcFun活动,4,不是官方哟 (＾o＾)ﾉ,57,0,用户存在
378,naggerok,5,,35,1,用户存在
379,masaki,4,,20,0,用户存在
380,newround,6,求五星礼装,31,1,用户存在
381,peps,6,一般河豚,42,1,用户存在
382,killbeliar,5,,25,1,用户存在
383,gogo果酱,5,,23,0,用户存在
384,BeinL,2,,22,0,用户存在
385,CarlJohnson,5,DD,34,0,用户存在
386,某七,5,,52,1,用户存在
387,謃詑,5,这屑站还真是不忘初心，吃相难看，天天首页推一帮恰烂钱的啥B玩意，黑名单都不够用，这屑站啥时候倒闭啊，等着喝喜酒呢,20,0,用户存在
388,深白色の愛,5,,28,0,用户存在
389,野中萌好蓝,6,,31,1,用户存在
390,Alice丶洛,1,,23,0,用户存在
391,若水恨水,6,,43,1,用户存在
392,面条,6,noodle 职业音乐游戏制作者，游戏策划，音效制作。MUSYNC/MUSE DASH官方关卡设计,251,1,用户存在
393,sinqi,4,,28,0,用户存在
394,茄子零,5,这个人很神秘，什么都不想写,45,1,用户存在
395,温迪妮,6,weibo.com/coffeekizoku 微博求粉（滚来滚去）。【水群】44583860可拖去日麻,62959,0,用户存在
396,躺尸多年账号,3,,28,1,用户存在
397,acianolc,5,,24,0,用户存在
398,囧神star,6, 宅不斷，腐不絕，萌不滅，控不停，乃成神之路,80,1,用户存在
399,orz,5,,36,1,用户存在
400,霊乌路空,5,如果你觉得你的祖国不好，你就去建设它 ,640,0,用户存在
401,约修亚,5,,45,1,用户存在
402,泷arisa,6,茄茄！,2764,1,用户存在
403,連鎖,6,You don't have permission to access this page.,546,1,用户存在
404,BlackTeaice,5,您所点击的空间无法访问，请狂点alt+F4射射,278,0,用户存在
405,西行妖,4,,26,1,用户存在
406,铁乌鸦,5,on my way,688,1,用户存在
407,デジコ,5,,86,0,用户存在
408,谷川空老师,5,,30,0,用户存在
409,拙者,6,,194,1,用户存在
410,糸色望,1,,20,0,用户存在
411,小白,1,,30,0,用户存在
412,爱丽丝莉莉姆,6,...........Si？,45,1,用户存在
413,达达,5,,23,0,用户存在
414,jackyhuang,6,HAHAHA,62,1,用户存在
415,燃尽の祭司,6,人生混乱…,40,0,用户存在
416,Oblivion,6,,115,1,用户存在
417,星屑MKIII,5,,66,0,用户存在
418,凉风,2,,98,1,用户存在
419,树海,4,感谢真爱粉们的关注。,38,0,用户存在
420,东方症候群,5,,25,1,用户存在
421,美纱,4,喵,34,0,用户存在
422,TDGUP主,1,,62,0,用户存在
423,sola,5,,43,1,用户存在
424,吹喜,5,,20,0,用户存在
425,KILLER,2,,21,0,用户存在
426,藤__夏樹,5,人体炼成中…   ※不加直播公会,1025,0,用户存在
427,没名字,5,,26,0,用户存在
428,芙芙炭,5,举杯邀明月，对影成——很多很多人。,405,1,用户存在
429,紳士提督firecat,6,萌/声控/imas千枝P/猫奴/D4DJ/赛马娘,160,1,用户存在
430,十凌十,4,,137,1,用户存在
431,米米,4,是个活人。,28,0,用户存在
432,Death,1,,20,0,用户存在
433,借落子_,5,,27,0,用户存在
434,雨時々微熱,1,,19,0,用户存在
435,不是游客,5,,39,1,用户存在
436,海星参上,6,爱老婆芽芽,39,1,用户存在
437,藍藍路食品有限公司,5,,33,1,用户存在
438,閃電華爾滋,6,UID438的活化石追新番还真是抱歉了啊、,434,1,用户存在
439,loves7,5,我不做那珂酱的粉丝了,24,0,用户存在
440,凌十陵,5,什么都没写,926,1,用户存在
441,二弍贰两,5,,21,1,用户存在
442,夏娜,6,无路赛无路赛无路赛,85,1,用户存在
443,Bili_443,3,,17,0,用户存在
444,独角兽,3,,68,1,用户存在
445,花花,5,,30,0,用户存在
446,TEMP,3,,19,0,用户存在
447,大鸟Birdy,3, 微博 http://weibo.com/BiggerBirdy,21,0,用户存在
448,守矢神奈子,5,,17,1,用户存在
449,我这个名字6硬币,4,Σ つ•̀ω•́つ动感光波哔哔哔哔哔-=≡!!!,48,1,用户存在
450,Red_450,6,放肆！交出450元我们就可以做朋友！微信：cakiihana,414,1,用户存在
451,諫山黃泉,5,道路漫漫 与子携行,352,0,用户存在
452,FH,1,,173,0,用户存在
453,saber,6,,81,1,用户存在
454,不及格大法师,5,在永恒的宅邸，拉莱耶中，长眠的克苏鲁候汝入梦。 Ia！Ia！Cthulhu fhatgn！,55,1,用户存在
455,老素机,3,我开始方了,131,0,用户存在
456,淡淡的便意,5,,245,0,用户存在
457,叉腰肌KMGmai,6,沉迷游戏无法画图，不定期投稿。微博ID：叉腰肌KMGmai  P站id=686515欢迎关注,409,1,用户存在
458,红法师,5,,22,1,用户存在
459,萝卜,1,,28,0,用户存在
460,露西法,5,,23,1,用户存在
461,灞波儿奔波尔灞,4,,224,0,用户存在
462,我是来围观的,4,,120,0,用户存在
463,綠藥貓Eisuke,5,陰キャ,26,1,用户存在
464,青年小伙子之青年,5,于是
在回家的路上
我们愉快地聊着这件事,1919,0,用户存在
465,委琐塑料,5,,27,0,用户存在
466,shiftzhm,5,,95,0,用户存在
467,OZ.,6,,37,1,用户存在
468,噩梦,1,,20,0,用户存在
469,WindForce,2,,17,0,用户存在
470,Careless,6,需要个鬼的签名,36,0,用户存在
471,saya,0,,24,0,用户存在
472,stormcy,5,,23,1,用户存在
473,梅粮新,6,只是一个兴趣使然的音乐人罢了   微博@梅粮新 群：313900287,2366,1,用户存在
474,min姬,3,,18,0,用户存在
475,伊原六花,6,蛙蛤蛤蛤蛤。,118,1,用户存在
476,吃我大X棒啦,5,,27,1,用户存在
477,博雅灵梦,5,东方一生推,54,0,用户存在
478,SOSG废铁,2,,36,0,用户存在
479,破风吟者,5,,36,0,用户存在
480,Bili_480,4,,865,0,用户存在
481,bili_481,4,,18,0,用户存在
482,掠影,6,简介是什么鬼,547,1,用户存在
483,ポケモン,1,,46,0,用户存在
484,DPS比治疗低,5,我只是个看客,64,1,用户存在
485,八云,6,,25,1,用户存在
486,幻想乡之王,1,,35,0,用户存在
487,呀达,1,,18,0,用户存在
488,青鸡丝干,4,,18,0,用户存在
489,冰水,4,,36,0,用户存在
490,linchen,5,,18,1,用户存在
491,失利,4,,18,0,用户存在
492,ANA,3,,11515,0,用户存在
493,迪卢木多·奥迪那,5,,56,0,用户存在
494,ark,6,,18,1,用户存在
495,剑归,4,这个人很神秘，什么都没写,18,1,用户存在
496,风干的香蕉,1,,18,0,用户存在
497,瓦达瑞泰,5,,19,1,用户存在
498,我什么都不知道,5,我来了，我完事了，我走了～,20,0,用户存在
499,boom,5,,121,0,用户存在
500,Kashin,5,,54,1,用户存在
501,长门砕月,5,,21,0,用户存在
502,拉菲゛,3,ⓘʕง•ᴥ•ʔงUID:502=͟͟͞͞ʕ•̫͡•ʔʕ•̫͡•ʔʕ•͓͡•ʔ,1423,1,用户存在
503,流河,6,,62,1,用户存在
504,石头,3,,29,0,用户存在
505,我开始孤单,2,,8,0,用户存在
506,HX你一户口本,4,,17,0,用户存在
507,放蝴蝶的法师,1,,19,0,用户存在
508,拉克丝克莱因,5,,229,1,用户存在
509,鹤屋,6,(￣_,￣ ),,481,1,用户存在
510,地球君,1,,21,0,用户存在
511,453d21c2v3,1,,17,0,用户存在
512,bood,4,,20,0,用户存在
513,冠诚睡不醒,6,,333,0,用户存在
514,WC,5,,54,1,用户存在
515,好萌的我,4,,17,0,用户存在
516,余文乐,4,,19,0,用户存在
517,头号饭桶,3,,24,1,用户存在
518,烟枪老猫,3,,29,0,用户存在
519,走近伪科学,5,,36,1,用户存在
520,梵高的夜空没有星,6,,215,1,用户存在
521,抽搐美,1,,41,0,用户存在
522,阿姜姜姜姜姜姜姜姜,5,,40,1,用户存在
523,满肛红,5,,46,0,用户存在
524,伊吹萃香_,6,,70,1,用户存在
525,无雨2021bate,5,⊙▽⊙,34,0,用户存在
526,萌魂燃烧,1,,18,0,用户存在
527,花菜是一只猫,4,小朋友收起小小烦恼，挂起月亮睡个好觉,29,1,用户存在
528,lunarian,5,,21,1,用户存在
529,wind,1,,130,0,用户存在
530,woefulwolf,6,↖(.●ωξ●)↗Eins,Zwei,Drei.,103,1,用户存在
531,哈亚铁股份有限公司,2,,13,0,用户存在
532,RemiliaScarlet,2,,15,0,用户存在
533,ceiss,1,,14,0,用户存在
534,留下表妹立地成佛,6,,27,1,用户存在
535,Archi,5,,32,1,用户存在
536,uid_536,2,,16,0,用户存在
537,萌萌偷鸡,1,,15,0,用户存在
538,西国の海妖,4,,14,0,用户存在
539,-哦泥酱-,5,,18,1,用户存在
540,夜一YaiChi,3,,4,0,用户存在
541,純潔的熊黨,5,经纪人爱跳团（凉念粉红）&Berryz工房,20,1,用户存在
542,俺村俺最受,1,,15,0,用户存在
543,萌貓叄味綫,4,,18,0,用户存在
544,wxtry,6,,49,1,用户存在
545,源氏,4,好耶！禁止好耶！
有事请私信！评论不一定回！,683,1,用户存在
546,蕾米俩,4,,16,1,用户存在
547,忘归然,6,,18,0,用户存在
548,DT,6,,6718,1,用户存在
549,⑨BeamCrystalL,6,,15,1,用户存在
550,瞄准没打着,4,test,78,0,用户存在
551,白莲爱格斗,5,你开都不会开，还讲什么性能？,36,1,用户存在
552,尴尬,5,,23,0,用户存在
553,麻奥,5,没有飞天小裤裤和天麻还想要钱？！w(ﾟДﾟ)w,1162,0,用户存在
554,庄恨水,2,,30,0,用户存在
555,文月维夜,5,不要问卖多少钱，问就5.55亿,57,0,用户存在
556,sunny,1,,15,0,用户存在
557,灵魂引渡,1,,16,0,用户存在
558,_83_4_,6,,19,1,用户存在
559,你为什么叫李某,4, ,251,1,用户存在
560,ミリクマ,6,幻士、刀狗、车万、少战、轨迹，以上,23,1,用户存在
561,星之所在,6,,19,1,用户存在
562,XMANN,6,,29,1,用户存在
563,暖,3,,18,0,用户存在
564,文太,2,,16,0,用户存在
565,好人卡制贩机,5,我们无处不在,21,0,用户存在
566,献给逝去公主的七重奏,6,什么都没有。。。。。。,35,1,用户存在
567,greedygod,5,不喜大签名，莫好大喜功，勿断章取义，戒好为人师,55,1,用户存在
568,小时候,3,QQ：53066,21,0,用户存在
569,别总盯着看嘛，人家只是基佬而已,6,KUMA,313,1,用户存在
570,雀圣,6,你的小鲤鱼好活跃啊,148,1,用户存在
571,便当,5,,22,0,用户存在
572,Chand,6,,18,1,用户存在
573,Memo221,5,MIKUFANS,24,1,用户存在
574,红色死神,6,,20,1,用户存在
575,春哥纯爷们,1,,15,0,用户存在
576,传承Lucifer,2,,61,0,用户存在
577,黑眼圈豆豆,5,,13,0,用户存在
578,王绫波,6,tell your world
嘛，反正咱一直都是opera+chrome党,19,0,用户存在
579,一般通过皇珈骑士,6,,25,1,用户存在
580,夜_风铃の梦,6,每当仰望星空的时候，就会感觉人类的世界不应该这么小,16,1,用户存在
581,真的爱鱼で,2,,20,0,用户存在
582,伦,2,,43,0,用户存在
583,弗兰朵露斯卡雷特,1,,14,0,用户存在
584,哇靠怪蜀黍,6,,20,1,用户存在
585,觉恋秦心,1,,16,0,用户存在
586,雷音天鼓,2,,16,0,用户存在
587,喧死狼,5,,2073,1,用户存在
588,遗忘许久的ID,1,竟然还记得,17,0,用户存在
589,咆哮,4,,15,0,用户存在
590,蓝蓝路,5,,111,1,用户存在
591,哥只是传说,1,,14,0,用户存在
592,風紀娘,5,,26,1,用户存在
593,芥末咖喱味,6,,36,1,用户存在
594,wangcrown,5,,16,1,用户存在
595,琥珀眼妖梦,5,,25,0,用户存在
596,一条薰子,4,,15,0,用户存在
597,苏菲弹力贴身,3,,16,0,用户存在
598,sdsdsdsd21,5,,23,1,用户存在
599,zhqwa,5,一天不喝浑身难受,13,1,用户存在
600,慕筱云,3,别再问我了，私人账号不出,103,0,用户存在
601,神の韵律,5,懒人的世界！你们懂的,18,1,用户存在
602,一群城管,4,饭团的野望！！！,16,0,用户存在
603,sakya,5,,22,1,用户存在
604,椿韵,6,,27,1,用户存在
605,nf622,2,,14,0,用户存在
606,我练功发自真心,1,,16,0,用户存在
607,JackyRabbit,6,,19,1,用户存在
608,晚香玉,6,用一点一滴的努力来打动你的心 (ヾ(´･ω･｀) weibo.com/nekohime,122156,0,用户存在
609,糖女,1,,16,0,用户存在
610,无限剑制,2,,17,0,用户存在
611,命都不要了,6,喵喵哒！,187,1,用户存在
612,kid1214,5,,23,0,用户存在
613,伪娘（司马）,3,,15,0,用户存在
614,风灵遗失,5,阿婵，天下第一！,17,0,用户存在
615,玉米喵,1,,17,0,用户存在
616,nammm,5,,15,0,用户存在
617,猥皮小熊,3,,16,0,用户存在
618,沙耶の呗,3,,20,0,用户存在
619,bili_619,1,,17,0,用户存在
620,Yi,5,,17,0,用户存在
621,托雷,4,,29,0,用户存在
622,魂魄妖夢,5,Time Waits For No One,42,0,用户存在
623,夏亚,6,,32,1,用户存在
624,尼尼尼,5,,26,1,用户存在
625,霸oO黄泉,3,,27,1,用户存在
626,rei,6,,23,1,用户存在
627,龙侯,3,知行合一,18,0,用户存在
628,我带着哀伤的欣喜,3,,22,0,用户存在
629,真红の瞳,6,遇火重生 然後過著每天一次 有時兩次 有時很多次的生活,10217,1,用户存在
630,grassck,6,不能你叫我写我就写,23,0,用户存在
631,小萧,2,,16,0,用户存在
632,DDL,5,微博@世界上最棒的彼得 http://www.weibo.com/u/2810211547/homewvr=5,37,0,用户存在
633,aw136,5,***,14,1,用户存在
634,新埂结一,4,还活着，号不卖T。T,19,0,用户存在
635,空条仗世文,5,,21,1,用户存在
636,能登麻美子,5,伪善者,28,0,用户存在
637,冻干粉,1,,14,0,用户存在
638,作为魔法师我压力很大,2,,14,0,用户存在
639,bearbear,2,,15,0,用户存在
640,废柴,5,人不废柴枉少年,37,1,用户存在
641,白鷺姫,3,飘花随风　 散于你的天际 　我的生命　渐渐平息           淡在缤纷的呼吸    所有一切　 都献给你……,20,0,用户存在
642,Saber_,5,,80,0,用户存在
643,受跌死捏,5,,25,0,用户存在
644,hjdtwjj,3,,19,0,用户存在
645,凶兆沙包,6,,54,1,用户存在
646,STEksDimension,3,,15,0,用户存在
647,星际旅行者Z,6,zZ,195,1,用户存在
648,NeT′TT,2,,21,0,用户存在
649,CDG,5,,19,0,用户存在
650,shelter,2,账号不售卖,63,0,用户存在
651,鸢月漓,6,B站气人UP主,51,1,用户存在
652,SIN,5,,70,0,用户存在
653,Pravis_channel,6,一旦發現網絡上的情緒是可以偽裝的時候就容易產生抽離感，連架都吵不起來( ･_･)ﾉ⌒●~*

讀不出來ID的話，就直接叫我P叔就可以了……,5592,1,用户存在
654,月墨墨墨,6,我如朝露降人间,48,1,用户存在
655,vergil,6,,91,1,用户存在
656,坏蛋,3,汪汪小可,21,0,用户存在
657,姬岚天,5,,14,1,用户存在
658,勇気の橘籽,2,,32,0,用户存在
659,艾露阿姬芙,5,机神咆哮！,45,0,用户存在
660,lebossling,5,,20,1,用户存在
661,不明真相的基友,4,,16,0,用户存在
662,李超,1,,16,0,用户存在
663,ac酱,1,,16,0,用户存在
664,o0小飞侠0o,2,,17,0,用户存在
665,sssss,1,,17,0,用户存在
666,wayne,5,号不卖，谢谢,374,1,用户存在
667,万物皆无爱,5,,36,1,用户存在
668,島風改,5,,81,0,用户存在
669,Lizeqiangd,5,消灭低俗空耳 有空来微博找我: madoka.moe,516,0,用户存在
670,飘,6,我永远喜欢尼娅，还有大家~,72,1,用户存在
671,天下,3,q487936,16,0,用户存在
672,Eila·Sanya,6,,21,1,用户存在
673,囧宝,5,We're only human,17,1,用户存在
674,诗雨デ,1,,16,0,用户存在
675,魅魔,1,,18,0,用户存在
676,宽娱,5,神奈川人,25,0,用户存在
677,七曜ノ魔法使,6,,154,1,用户存在
678,沈影月,3,生活要有仪式感,20,1,用户存在
679,天然菜,5,,21,1,用户存在
680,缘见难别,5,是个欧皇，以上,105,1,用户存在
681,JEO,4,,14,0,用户存在
682,AT立场,5,,26,1,用户存在
683,GUNDAM囧囧,6,在我眼中只有2种妹子
能合体的和能当做兵器的,18,0,用户存在
684,诹访油库里,6,⑨什么的一口吃掉就可以了,36,0,用户存在
685,五条,5,没有签名,14,0,用户存在
686,糟糕小叮噹,3,,17,0,用户存在
687,UID_687,3,这是个撒鼻息的货，看到他的作品纯属意外,35,0,用户存在
688,阿尔托莉雅℡,2,,43,0,用户存在
689,homesickness,5,,15,1,用户存在
690,五月雨,6,,119,1,用户存在
691,芙兰雾雨,6,,561,1,用户存在
692,龙套丁,5,,30,1,用户存在
693,赫卡Tia,6,愿你生如繁花，肆意绽放。 工作Hecatiaastar@gmail.com ,129872,1,用户存在
694,德莉莎阿波卡莉丝,4,,18,0,用户存在
695,小雨夏秋,2,,17,0,用户存在
696,POLICE萌,6,立个FLAG，不更新就没有女朋友,768,1,用户存在
697,临江,5,,7,1,用户存在
698,KamiManson,5,,16,1,用户存在
699,空母ヲ級,5,理智  0/130,53,0,用户存在
700,胧鳞,5,尾丸波尔卡,2270,1,用户存在
701,希尔维亚的老公,1,,15,0,用户存在
702,5528111,5,,20,0,用户存在
703,希尔维亚-但丁,1,,14,0,用户存在
704,阿尔卑斯之星星,6, ,6213,0,用户存在
705,liet,1,,13,0,用户存在
706,叽里咕噜,5,,13,1,用户存在
707,为何出现在此,6,,15,0,用户存在
708,指向小狐,6,,19,0,用户存在
709,楓丹白露的雨季,5,不可结缘 徒增寂寞,58,0,用户存在
710,猫猪,5,,14,0,用户存在
711,鱿鱼不自重,4,,15,1,用户存在
712,发给你吉尔,1,,16,0,用户存在
713,曾马虎,4,,26,0,用户存在
714,黒猫はただのNPC,6,,23,1,用户存在
715,王储,3,,14,0,用户存在
716,三千,3,二不起 二不起,20,0,用户存在
717,东仪白,6,,41,1,用户存在
,,,,,,用户已注销
719,Ink酱,6,,30,1,用户存在
720,幻化雪风,5,有人真诚地付出，请你不要揣测他美好的愿望； 有人坦诚地劝诫，请多想想自身的问题； 施与授同样重要， 只要是真心的相告，请宽容纳之。,212,0,用户存在
721,西林,1,,17,0,用户存在
722,伪劣产品,6,,28,0,用户存在
723,爱情上甘岭_,1,,15,0,用户存在
724,依莉雅苏菲尔,2,,16,1,用户存在
725,耻照,3,荣耻照我心,92,0,用户存在
726,白诘草,5,(￣ε(#￣)☆╰╮o(￣▽￣///) ,46,1,用户存在
727,kot,5,,19,0,用户存在
728,大姨妈,5,亲属称谓，大姨妈特指母亲姐姐。“姨妈”用于称呼母亲的姊妹，对长辈的一种称呼。大姨妈一般特指母亲的大姐。网络上有时候也指女子来月经。,57,0,用户存在
729,青色葵,5,,16,0,用户存在
730,Ringo_hs,4,,20,1,用户存在
731,万能的双手,4,,16,0,用户存在
732,嘉然家的猫,6,,60,1,用户存在
733,売女の憂鬱,2,,16,0,用户存在
734,不知,5,,20,0,用户存在
735,佐藤达广,6,,46,1,用户存在
736,南蛮,5,我这人打游戏喜欢出蒙古上单，无暗之夜中单，豆沙馅儿打野，下路雪女辅助，链锁轮胎输出,16,1,用户存在
737,十六夜PAD,1,,13,0,用户存在
738,MEImogumogu,6,,160,1,用户存在
739,神乐,6,,803,1,用户存在
740,金主,5,okok,25,1,用户存在
741,OtakuGangsta,3,,16,0,用户存在
742,布洛酷亚,4,不卖号，我们只是一个喜欢二次元的小团队~ 董事@Blokura,3825,0,用户存在
743,秋筱筱,1,,13,0,用户存在
744,重症网瘾老年,5,,17,0,用户存在
745,工口宅,5,,13,1,用户存在
746,纸芯,6,Saharie Naturita,16,0,用户存在
747,隐者,1,明天就LV2,1022,0,用户存在
748,BansheeZH,5,,31,0,用户存在
749,宅,2,,12,0,用户存在
750,安西光义,3,,15,0,用户存在
751,AlfredP,5,,41,1,用户存在
752,kinji,3,哔哩哔哩UP主2群：QQ群号：171533858,15,0,用户存在
753,刷屏白滚回avfun,1,,14,0,用户存在
754,塞奇,1,,14,0,用户存在
755,boredleo,1,,13,0,用户存在
756,腹基馒馒,1,,17,0,用户存在
757,淡写青春乀,4,,2039,0,用户存在
758,PAD娘,1,エロゲー＝人生なのに···,14,0,用户存在
759,天仓叶,6,你连指尖都泛出好看的颜色.,24,0,用户存在
760,全方位立体路过,5,,14,1,用户存在
761,沐火,5,,19,0,用户存在
762,光之秃头仔,5,吃亏是福，破财免灾,27,1,用户存在
763,很爱很爱你s,1,,16,0,用户存在
764,我爱你很爱你z,1,,13,0,用户存在
765,麦秆软饮,4,,17,0,用户存在
766,Holy-Shit,3,,12,0,用户存在
767,薪炎永恒,3,缘分收767号个性装扮,18,1,用户存在
768,没有此次,5,,108,0,用户存在
769,DFLL,1,,14,0,用户存在
770,哇哈哈股份有限公司CEO,4,,13,0,用户存在
771,DaveiH,5,,18,0,用户存在
772,老赵o,5,有事联系Q7666666,707,1,用户存在
773,nns7450,5,今天也要加油,17,0,用户存在
774,萨西利亚,1,,17,0,用户存在
775,被诅咒的软泥怪,6,,181,1,用户存在
776,女神永恒pro,4,,13,1,用户存在
777,セルッウス,5,,52,1,用户存在
778,remilia,3,,15,0,用户存在
779,片羽,4,,15,0,用户存在
780,酥心汤圆,5,prpr~~~,42,1,用户存在
781,你丫没人参了,4,,14,0,用户存在
782,冈山浮浪者,6,人民群众喜欢，你算老几？,66,1,用户存在
783,艾伦马克,4,记录生活中有意义的片段,9918,1,用户存在
784,裸奔的男子,2,我是个非常污的腐女,16,0,用户存在
785,妖,2,,46,0,用户存在
786,绵月依姬,1,,15,0,用户存在
787,鬼画符,5,,17,1,用户存在
788,我不叫兔锅,1,,16,0,用户存在
789,Seraphim,6,,27,1,用户存在
790,哎喲兔子,1,,16,0,用户存在
791,待云封,3,,17,0,用户存在
792,Laoism,2,http://about.me/Laoism,22,0,用户存在
793,Min酱,1,,14,0,用户存在
794,海淀黄庄,6,,18,1,用户存在
795,Aoi衣铃,5,,14,1,用户存在
796,レミ喵爷,1,大小姐什么的最讨厌了~！,18,0,用户存在
797,deathmelody,5,,13,1,用户存在
798,闲着刷抖音,5,这个人很聪明什么都没有写( ¨̮ ),33,0,用户存在
799,第799位神秘人物,5,密码没忘，排面十足,61,1,用户存在
800,风月永恒,5,,19,0,用户存在
801,神の引欲,4,,17,0,用户存在
802,松花蛋,6,奔四老家伙一个，见证了这个网站的兴起。,17,1,用户存在
803,草泥馬的铠甲,2,,14,0,用户存在
804,绵羊不哭,6,,15,1,用户存在
805,反对一春一曾,1,,14,0,用户存在
806,大混操,5,,26,1,用户存在
807,霧珠れいむ,6,,92,1,用户存在
808,格林达姆,4,,14,0,用户存在
809,莫莫,3,,14,0,用户存在
810,Grigor,2,,49,0,用户存在
811,五月七日小羽゜,6,请不要关注！谢谢( ｡• 0 •｡｀)
咕咕咕咕咕咕咕咕咕咕咕咕咕咕咕咕咕(๑˙ー˙๑)
最喜欢的是五月七日小羽。后面……没了(；一_,11,1,用户存在
812,绿坝子,2,,16,0,用户存在
813,小启,2,,17,0,用户存在
814,白石稔,6,,25,1,用户存在
815,1qazse4c,6, ,13,1,用户存在
816,藏土緣鑰匙,6,,2,0,用户存在
817,MoonDigi,6,,51,1,用户存在
818,斑鸠沙利昂,5,贵在坚持 EVE@Sarion Ikaruga @斑鸠Sarion,2095,1,用户存在
819,鍵山雛,6,秘神流し雛,70,0,用户存在
820,天元之羽,5,,10,1,用户存在
821,Colleen,4,干啥啥什么的最讨厌了!,130,0,用户存在
822,ニコ子,5,,267,0,用户存在
823,布莱特,5,,19,1,用户存在
824,跃迁猫,5,快让开，我要放大招了！,47,0,用户存在
825,Alexis玩脱了,6,ここにいるよ！,56,1,用户存在
826,爹蘇,1,,16,0,用户存在
827,传说哥♂黃澤義♂,6,,36,1,用户存在
828,河蟹大怪物,6,,24,1,用户存在
829,kid,1,...,15,0,用户存在
830,Greendam,1,,16,0,用户存在
831,NuMber.H,1,,17,0,用户存在
832,蛋定帝,2,,19,0,用户存在
833,藤了个壶,5,既是A 也是Ω,35,0,用户存在
834,陈天天天天天天天天天,5,,15,1,用户存在
835,睡觉的猫,1,,15,0,用户存在
836,D-O-double-G1,6,111,33,0,用户存在
837,亡者之气,6,,6,1,用户存在
838,自粽回路,6,,281,1,用户存在
839,第十一区管理员,6,,795,1,用户存在
840,弹幕测试员,2,为人，则生之霸气.,16,0,用户存在
841,盥洗室的贤者,5,,16,0,用户存在
842,汐城alice,6,,1,1,用户存在
843,fontaine,6,从此之后我们就再也没见过up主。,17757,0,用户存在
844,起早,4,,15,0,用户存在
845,山猫_Luchs,6,,19,1,用户存在
846,血色獠牙,6,听话，让我康康（震声）,80,1,用户存在
847,林晓卿,2,,2,0,用户存在
848,堕落贼天使,6,,164,0,用户存在
849,慕月追风,5,,30,1,用户存在
850,草薙京,5,我的青春已远去……,1738,1,用户存在
851,Alifare,6,70%不畅销作家先生+30%不称职作家太太=本体,28,1,用户存在
852,sukera,5,,14,1,用户存在
853,saw,5,,14,0,用户存在
854,只有一个纯爷们,5,,16,1,用户存在
855,悠纪,6,,30,1,用户存在
856,基,1,,17,0,用户存在
857,江风沉醉的晚上,6,,21,1,用户存在
858,neucom,5,,19,0,用户存在
859,crbx,5,,46,0,用户存在
860,茉莉,5, ,2537,0,用户存在
861,ylide,3,,12,0,用户存在
862,清浦刹那,5,感觉有人失智了,103,1,用户存在
863,加成反應,6,投稿终于变成两位数了(｡･ ω･ )ゞ 牙医，微博@加成反應AdditionReaction ,221,1,用户存在
864,趴趴,6,,0,1,用户存在
865,hyckenan,4,,14,0,用户存在
866,轻薄的假想,6,蛋疼中,8,1,用户存在
867,找啊找啊找基友,1,,12,0,用户存在
868,最爱妹抖长,1,,13,0,用户存在
869,寻找卫生纸,5,,50,0,用户存在
870,ThisSlinceIsMine,6,,35,0,用户存在
871,大狼鲸,4,微信QQ同号 81871,18,1,用户存在
872,真的爱鱼,1,,14,0,用户存在
873,3213,2,,112,0,用户存在
874,鸡动站贱,1,,14,0,用户存在
875,Thanatus,1,,16,0,用户存在
876,庚肆,6,网络小说写手“庚肆”，微博“庚肆”。专注爽文百年不动摇。人生苦短，摒弃悲伤！且笑且成长。,14,0,用户存在
877,幻葬咲夜,6,,137,0,用户存在
878,御姐控,5,这个人不懒，但还是什么都没写。,329,1,用户存在
879,Infanta,3,没有签名,12,1,用户存在
880,何等糟糕,1,天啊，太糟糕嘞,166,0,用户存在
881,虹fate,5,,15,0,用户存在
882,笨蛋⑨,2,,13,0,用户存在
883,xwlb,5,,29,0,用户存在
884,技术支持,2,,22,0,用户存在
885,基情一浪浪,1,,13,0,用户存在
886,章鱼小周,6,,159,1,用户存在
887,WILLEVA,5,此人不值得你关注,141,1,用户存在
888,少女下载中,5,官方公然開車的背後究竟有什麼？！,93,1,用户存在
889,小书毅,5,,28,1,用户存在
890,可三央,6,,24,1,用户存在
891,。。。。。。。。。。,1,,15,0,用户存在
892,ref,3,,16,0,用户存在
893,量产型四次君,5,,26,1,用户存在
894,胖虎脱口秀,5,,20,1,用户存在
895,片翼の苍蝇,5,,22,0,用户存在
896,大佐,6,杂食动物。微博 @地球防卫大佐mk4,2231,1,用户存在
897,黑の眠,1,,15,0,用户存在
898,早川秋,3,,37,1,用户存在
899,免检小绵羊,6,新语联盟配音社社长，不知名up主，兴趣使然的厨子，也是个射影湿，但是请记住我是配音爱好者。。。。。,8403,0,用户存在
900,BTPlayer,2,,768,0,用户存在
901,字数你妹,2,,17,0,用户存在
902,MyLoli,3,最后的倒计时,1,0,用户存在
903,ramlife,5,,17,0,用户存在
904,最终鬼畜蓝猫,1,,14,0,用户存在
905,net,4,,27,1,用户存在
906,伊吹,2,,14,0,用户存在
907,魔力_Q,6,美食番推荐一下,32,1,用户存在
908,白菜のKaito,5,,56,1,用户存在
909,zz213,5,,14,0,用户存在
910,傲娇钉最萌,4,,15,0,用户存在
911,鬼畜小受,2,,22,0,用户存在
912,萧大光,6,这个肥宅很神秘，什么都没有写～,21,1,用户存在
913,pixielark,5,,15,0,用户存在
914,北川秋人,3, El Psy Congroo .,9,1,用户存在
915,luffytam,5,平凡的AMS特工，持续关注，翻译HOD各类新闻。洛克我们永远等你回来，Legends Never Die!,381,1,用户存在
916,Ivy茶么,3,全部成为F！
,46,1,用户存在
917,哈梅尔,6,人类只不过是编织名为生命的梦的素材而已！,23,1,用户存在
918,暗黑龍騎兵,1,,15,0,用户存在
919,上帝の左手,6,盯~~~~~~~~~~~~~~~~~~~~~~,83,0,用户存在
920,苏苏ゆ,5,不到N2不改签名！！！,44,1,用户存在
921,麻呱,5,不用查我的成分了，关注收藏全公开了，一个深海老水母罢了。,22,0,用户存在
922,糙米熟饭,4,梦境漫无边,13,0,用户存在
923,菊花帝,1,,12,0,用户存在
924,黄金九,4,东京飘雪有你足矣。,13,0,用户存在
925,911,6,靠11年前的投稿混吃等死,7962,0,用户存在
926,o正义人o,6,给时光以生命，给岁月以文明,223,1,用户存在
927,アビスこん,6,,44,0,用户存在
928,NickfuryLai,2,,0,0,用户存在
929,萝莉开神虎,3,,15,0,用户存在
930,edc1433,5,,16,0,用户存在
931,咚咚小偷,2,,14,0,用户存在
932,囧皮,2,,13,0,用户存在
933,鈴,3,,14,0,用户存在
934,老虎大萌,6,,9137,0,用户存在
935,湛蓝月光,5,╮(╯▽╰)╭,114,0,用户存在
936,猫猫猫猫虫,6,,15,0,用户存在
937,池石镇,4,,2267,0,用户存在
938,翼世,1,- -......,13,0,用户存在
939,bili_939,5,,16,0,用户存在
940,kauking,5,,26,1,用户存在
941,366のK桑,6,咸鱼主播求个关注,116,1,用户存在
942,口鼻姬,4,,16,0,用户存在
943,财经网,1,,13,0,用户存在
944,终身loli控,6,脑洞很大的模型改造者，4+2爱好者（四履带/足+双联主武器），老二刺猿，肥宅，医生。,40,0,用户存在
945,固定班底基友会,1,,14,0,用户存在
946,shiroikami,5,,17,0,用户存在
947,Chen。,1,,14,0,用户存在
948,柴刀娘木木⑨,4,°˖✧◝(⁰▿⁰)◜✧˖°muQmuQ这里是搬运小号，大号请关注uid9：柴刀娘木木，没有⑨！这个号不常上~~,2776,0,用户存在
949,darkalien,3,Radiologist,16,0,用户存在
950,乘风逐月,6,,17,1,用户存在
951,erRor,1,,14,0,用户存在
952,993,5,,18,0,用户存在
953,银河君,5,,16,1,用户存在
954,美丽公主赵美延,4,我是饭了十几年KPOP韩圈的群主，曾经有全中国最大的韩饭群之一。最近由于QQ被腾讯永久封号，所以决定起用B站作为以后社交重点。66也是我的号,36,0,用户存在
955,LunaticKizuna,5,,25,0,用户存在
956,空白君,6,,30,0,用户存在
957,大狐狸大狐狸,5,,14,1,用户存在
958,despairer,6,这个人懒死了(´・_・｀),15,1,用户存在
959,Nazrin,5,,56,1,用户存在
960,qq123423,4,,17,0,用户存在
961,双手空空,6,,18,1,用户存在
962,kyo,2,,12,0,用户存在
963,马鹿马路,5,,18,0,用户存在
964,DEVILMAYCRY,1,,13,0,用户存在
965,f_,5,,14,0,用户存在
966,水树菲特,6,,15,1,用户存在
967,绯盏,4,emm，可能会变成老古董也说不定？,18,0,用户存在
968,格林达姆w,1,我是身价4kw的大小姐!,14,0,用户存在
969,rosicky,4,给自己的时候啊哈哈哈大笑,19,0,用户存在
970,Bili_970,3,,16,0,用户存在
971,醒夜,5,若无登九品莲台之意，亦无堕八万地狱之罪。,29,1,用户存在
972,sophia,5,,20,0,用户存在
973,射命丸★文,6,世界の片隅で、眠るように生きてます。　　　 日文freegame安装乱码等问题请先看看我的专栏。,15894,1,用户存在
974,青空下的约定,5,不喜欢Q娃的提督不是好社畜,34,1,用户存在
975,音子,5,,14,0,用户存在
976,蓝猫鸣泣之时,5,,15,1,用户存在
977,哥抽的是寂寞,1,adsfads,14,0,用户存在
978,z101z,5,,19,1,用户存在
979,荔枝味的炸弹,2,苦大但不仇深,29,0,用户存在
980,冒充芦苇,5,适度中二 有益身心健康,15,1,用户存在
981,公安⑨课,1,,13,0,用户存在
982,darksoul,5,XD,21,0,用户存在
983,LFG,2,,13,0,用户存在
984,死鱼,5,我爱你,bilibili,32,1,用户存在
985,蕾米莉亚,1,,56,0,用户存在
986,Noby,2,,14,0,用户存在
987,xpz326,5,,32,1,用户存在
988,csckof,3,长年潜水，想买号的带价m,11,0,用户存在
989,电视VS电脑,6,,20,1,用户存在
990,卖女孩的怪蜀黍,5,坚强的活着，诸君勿念,685,1,用户存在
991,暮色旋,5,少年不知爱憎，一生仅一次心中悸动不已,12,1,用户存在
992,鬼畜饼,5,这个人很懒，什么都没有留下,17,0,用户存在
993,SOS団,1,,12,0,用户存在
994,ndkkgkn,3,,12,0,用户存在
995,sjj,6,,55,1,用户存在
996,玖月紫苑,6,,117,1,用户存在
997,峯岸みなみ,2,,10,0,用户存在
998,青少年保护计划,3,,14,0,用户存在
999,Keene_Only,2,不卖了哦，想要收藏,79,0,用户存在
1000,ttys2048,3,mooooooogu!,3223,0,用户存在
1001,ART,6,,14,1,用户存在
1002,鸥买咖,2,,11,1,用户存在
1003,花样の年华☆,4,生如夏花之绚烂，死如秋叶之静美,31,0,用户存在
1004,精灵贝壳,2,,216,0,用户存在
1005,古明地球仪,5,ⓘ该账号保护中,25,1,用户存在
1006,小山内早智,3,正因为喜欢着你...所以无法继续和你在一起,0,1,用户存在
1007,AVFUN有限责任公司,5,,15,1,用户存在
1008,魔化赤衣尊者,6,主机游戏玩家，手游只玩明日方舟，随缘直播一些热门单机,61,1,用户存在
1009,文艺bb,2,OK ,17,0,用户存在
1010,我们的蔬菜不够,4,时间毁灭一切~,101,0,用户存在
1011,你给我认真点,1,,17,0,用户存在
1012,低调的拖把,3,,15,0,用户存在
1013,raichi,4,,17,0,用户存在
1014,OB,3,,15,0,用户存在
1015,小瓜,4,,13,0,用户存在
1016,oO小邪Oo,4,,18,0,用户存在
1017,Claudio·T·Lotti,1,.「悲しくて、愛しいの女王様」.,20,0,用户存在
1018,demonjxc,5,,54,1,用户存在
1019,落天,1,,13,0,用户存在
1020,xinlifestory,5,,13,1,用户存在
1021,想来一炮吗,1,,13,0,用户存在
1022,mage,5,请联系,116,0,用户存在
1023,面麻,2,,15,0,用户存在
1024,lee,5,,37,1,用户存在
1025,杰森·四王带俩炸,3,一切都是为了鸭子！,20,0,用户存在
1026,茶茶丸,2,,18,0,用户存在
1027,无竹林,6,许多年过去了，少年依然是少年，一点也没有变，时间不会让少年成熟，只会让少年变老。,686,0,用户存在
1028,長門有希,1,,21,0,用户存在
1029,漫游仙境喵莉丝,2,除了注册时间早以外其他咱神喵都不会……好想和人一起玩游戏啊,189,0,用户存在
1030,哎呦,1,,17,0,用户存在
1031,aze,1,,123,0,用户存在
1032,Mr.child,1,,11,0,用户存在
1033,十六夜智代,1,,12,0,用户存在
1034,你全家都是中枪帝,5,,16,0,用户存在
1035,贝露丹迪,4,,16,0,用户存在
1036,战乙女,6,我一直是crew啊,101,1,用户存在
1037,ACFUN大姨妈_,1,,12,0,用户存在
1038,不明真相的围观群众,1,,13,0,用户存在
1039,serinde,5,,13,1,用户存在
1040,123,2,,14,0,用户存在
1041,无聊了,6,幸福一直持续只会变平淡，痛苦一直持续却能变坚强！,33,1,用户存在
1042,frog,4,,12,1,用户存在
1043,odan,6,,20,1,用户存在
1044,kamler,5,,1,1,用户存在
1045,破線,4,,12,0,用户存在
1046,jhreyherty,1,,14,0,用户存在
1047,水月清风,1,,13,0,用户存在
1048,cmshihang,5,,13,1,用户存在
1049,帕拉甲,5,,29,1,用户存在
1050,yashiro,1,,12,0,用户存在
1051,暗黑电子流,4,专注作业国服脚打的fgo,33,1,用户存在
1052,这论坛可真基我还是信春哥吧,2,蓝蓝路是邪教.春哥才是真神,64,0,用户存在
1053,sy,2,,12,0,用户存在
1054,AC光光团,1,,13,0,用户存在
1055,OneAlley,4,,10,0,用户存在
1056,大邪神,5,懒癌末期。。在b站潜水多年,27,1,用户存在
1057,乘风破浪的姐姐,5,勿扰～,119,0,用户存在
1058,唯登诗树,6,啥也不懂,6072,1,用户存在
1059,熊猫,6,,83,1,用户存在
1060,雪拉比poi,4,正在跟上这个世界，努力理解这个世界了~
,17,1,用户存在
1061,kiorcll,6,,18,1,用户存在
1062,蓝蓝路大主教,1,,14,0,用户存在
1063,基情十六射,1,,15,0,用户存在
1064,只萌萝莉,1,,12,0,用户存在
1065,冏.Smith,5,,14,1,用户存在
1066,Lanselote,1,,12,0,用户存在
1067,撒谎,3,三分钟热度的玩家,15,1,用户存在
1068,星夜Online,5,,17,1,用户存在
1069,我只是想试试可以用多长的昵称,1,,13,0,用户存在
1070,牛顿,3,棺材板烂了,23,1,用户存在
1071,激情boy,1,,11,0,用户存在
1072,RoboKon,5,,13,0,用户存在
1073,天海春香,1,,12,0,用户存在
1074,corner,3,如果我脱单了，想必也不会沉迷于动漫吧,11,0,用户存在
1075,phoenixzyc,3,,11,0,用户存在
1076,code,2,,13,0,用户存在
1077,yuu,6,,40,1,用户存在
1078,ATM,4,A岛岛主ATM adnmb.com ,4500,1,用户存在
1079,萝卜_,3,,14,0,用户存在
1080,bili_1080,2,MIkufans,13,0,用户存在
1081,Roger,1,,11,0,用户存在
1082,该名字被占用,3,,14,0,用户存在
1083,SOSG脑残大师,1,,11,0,用户存在
1084,安骏,6,辑编性个名签,72,1,用户存在
1085,熒紅の雨,2,,11,0,用户存在
1086,minkiki,2,RAP交流群:527523723,28,0,用户存在
1087,xx111,5,,30,1,用户存在
1088,尤加莉.诺蕾姬,5,,17,1,用户存在
1089,Sharuru-,6,,138,1,用户存在
1090,內輪鼬太知,4,悪魔でも人间でもない,16,1,用户存在
1091,天花板上吊着猫,5,aka 黄浦春马,3949,1,用户存在
1092,bili_1092,4,,44,0,用户存在
1093,发福饭团,3,,10,0,用户存在
1094,写写丸,5,,260,1,用户存在
1095,KD,2,,11,0,用户存在
1096,千人捏,2,,12,0,用户存在
1097,唾沫屋,1,,11,0,用户存在
1098,GK,6,わたくし,89,1,用户存在
1099,東原亜希,5,,17,0,用户存在
1100,夜幕の终焉,4,,15,0,用户存在
1101,蛆帕斯POI,6,说的所有话都是段子，画的所有图都是虚空。,52499,1,用户存在
1102,Fortune,1,,12,0,用户存在
1103,妖刀,2,,14,0,用户存在
1104,TommyLong,5,4位数uid能卖多少钱？欢迎报价,14,1,用户存在
1105,大爱三无,6,特别能憋尿,26,1,用户存在
1106,柏菊,5,,13,1,用户存在
1107,那尼,1,,11,0,用户存在
1108,7s保护协会,4,,33,1,用户存在
1109,Rudolen,2,,11,0,用户存在
1110,春哥来了,1,,11,0,用户存在
1111,kail,5,这个人又懒有神秘，什么都没写。,51,1,用户存在
1112,Hmily-One,5,,11,0,用户存在
1113,bili_1113,1,联系QQ148252192,13,0,用户存在
1114,隔壁雍凉,3,远赴人间惊鸿宴，一睹人间盛世颜。,17,0,用户存在
1115,Anyway,5,,13,1,用户存在
1116,鹿过,5,懒,46,0,用户存在
1117,qqwwaa,5,,11,0,用户存在
1118,Ashes-L,6,emmmm,39,1,用户存在
1119,iloilo,6,,12,1,用户存在
1120,火灵,5,,13,1,用户存在
1121,艾莉西亚,5,,24,0,用户存在
1122,elbe_feng,6,,120,1,用户存在
1123,天蓝古鉴,5,,32,0,用户存在
1124,橘栽去,3,,11,0,用户存在
1125,Laevatein,1,,11,0,用户存在
1126,史上最⑨路人甲,2,,12,0,用户存在
1127,注册问题让我好自卑,3,,11,0,用户存在
1128,dsmask,1,,11,0,用户存在
1129,mzswyx,6,,25,1,用户存在
1130,玥玥,5,,36,1,用户存在
1131,石,2,,4,0,用户存在
1132,天朝文化传播中心,2,,15,0,用户存在
1133,zhucehuiyuan,3,,12,0,用户存在
1134,三个假名,2,,12,0,用户存在
1135,RedSpecial,5,,23,1,用户存在
1136,教授,4,,13,0,用户存在
1137,花花_,2,,12,0,用户存在
1138,xmnc,4,,11,0,用户存在
1139,黑暗灵蛇,5,,16,0,用户存在
1140,renkaqn,1,,11,0,用户存在
1141,---,1,,12,0,用户存在
1142,苏怡,5,,9,1,用户存在
1143,HelloHusky,5,淡定,12,0,用户存在
1144,Coralnight,6,,12,1,用户存在
1145,尼巴兔,5,,27,1,用户存在
1146,GarRykING,6,深渊潜伏者,14,0,用户存在
1147,156741638,2,,10,0,用户存在
1148,霞光散去月光冰凉,5,,32,0,用户存在
1149,幽异,6,你丫看不到我  ⊙.⊙ ,13,1,用户存在
1150,ac路人围观团,1,,11,0,用户存在
1151,OVO,5,,15,0,用户存在
1152,神隐龙骑士,3,,11,0,用户存在
1153,clamby,5,互相伤害 互相依赖,11,1,用户存在
1154,nuclear.submarine,1,,198,0,用户存在
1155,科長,5,年番更新完毕~继续装死ing~,943,1,用户存在
1156,bigbus,1,,10,0,用户存在
1157,怪neko,4,,10,0,用户存在
1158,cjj,1,,11,0,用户存在
1159,米国BOY最讨厌啦,5,,22,0,用户存在
1160,女仆有爱,1,,10,0,用户存在
1161,天天爱看哔哩,2,,1,0,用户存在
1162,夏宝qaq,4,,11,1,用户存在
1163,C.C.萌殺の哈,3,,12,0,用户存在
1164,伊藤诚,3,都是世界的错,153,0,用户存在
1165,CQZXB,4,,13,0,用户存在
1166,lycoris,5,,38,0,用户存在
1167,推土机,1,,9,0,用户存在
1168,囧.スミス,5,,10,0,用户存在
1169,wolves,5,,11,1,用户存在
1170,⑨是八嘎,1,,10,0,用户存在
1171,bili_1171,2,,9,0,用户存在
1172,奔跑的大麻花,4,,3,0,用户存在
1173,围棋饼干,5,,16,1,用户存在
1174,000000,5,,11,1,用户存在
1175,daidaizhu,4,,10,1,用户存在
1176,PPCC32,6,,11,1,用户存在
1177,miku只为你而唱,1,,8,0,用户存在
1178,悲哀,3,人生若只如初见，何事西风悲画扇。,11,1,用户存在
1179,绿坝,1,,9,0,用户存在
1180,取个什么名字好呢,1,,9,0,用户存在
1181,信我者-得春哥,1,,9,0,用户存在
1182,常有分分合合,2,,10,0,用户存在
1183,路过的,6,,20,0,用户存在
1184,女王殿下,1,,10,0,用户存在
1185,setuski,2,,9,0,用户存在
1186,龙血翡翠,5,咔嗒～,324,0,用户存在
1187,身心健全,6,健全的身体，健全的心理，健全的三观，啊！我很健全啊！,93,1,用户存在
1188,馬鹿,5,当时只道是寻常,23,1,用户存在
1189,winwei,5,,9,0,用户存在
1190,夜魑魅,1,,19,0,用户存在
1191,void77777,6,,25,1,用户存在
1192,华丽丽的湿,5,没有信仰和咸鱼有什么区别！,10,1,用户存在
1193,小白520,1,,9,0,用户存在
1194,左手,3,,11,0,用户存在
1195,28,6,,0,1,用户存在
1196,zizi,4,,11,0,用户存在
1197,傲娇控,1,,9,0,用户存在
1198,Mephisto,2,,13,0,用户存在
1199,昵称,5, (゜-゜)つロ 乾杯~,38,0,用户存在
1200,假CK真OK,5,我们所度过的每一个日常，也许就是连续发生的奇迹。,47,0,用户存在
